tb.vcd
$date
Thu Apr 10 02:16:03 2025
$end
$version
Riviera-PRO Version 2023.04.112.8911
$end
$timescale
1 ns
$end

$scope module tb $end

$scope module apb_if $end
$var reg 1 ! pclk $end
$var reg 1 " preset $end
$var reg 1 # psel $end
$var reg 1 $ pwrite $end
$var reg 1 % penable $end
$var reg 1 & pready $end
$var reg 1 ' pslverr $end
$var reg 32 ( paddr [31:0] $end
$var reg 32 ) pwdata [31:0] $end
$var reg 32 * prdata [31:0] $end
$var reg 1 + preset $end
$var reg 1 , psel $end
$var reg 1 - penable $end
$var reg 1 . pwrite $end
$var reg 32 / paddr [31:0] $end
$var reg 32 0 pwdata [31:0] $end
$var reg 1 1 preset $end
$var reg 1 2 psel $end
$var reg 1 3 penable $end
$var reg 1 4 pwrite $end
$var reg 32 5 paddr [31:0] $end
$var reg 32 6 pwdata [31:0] $end
$var reg 32 7 prdata [31:0] $end
$var reg 1 8 pready $end
$var reg 1 9 pslverr $end
$upscope $end


$scope module dut $end
$var reg 2 : SETUP [1:0] $end
$var reg 2 ; W_ENABLE [1:0] $end
$var reg 2 < R_ENABLE [1:0] $end
$var reg 2 = apb_st [1:0] $end
$var reg 1 > busy_rand_enable $end
$var integer 32 ? busy_min $end
$var integer 32 @ busy_max $end
$var integer 32 A busy_delay $end
$var reg 1 B err_enable $end
$var reg 32 C err_addr [31:0] $end
$var reg 32 D ctl_reg [31:0] $end
$var reg 32 E stat_reg [31:0] $end
$var reg 32 F timer_0 [31:0] $end
$var reg 32 G timer_1 [31:0] $end
$var reg 32 H data_in [31:0] $end
$var reg 32 I rdata_tmp [31:0] $end

$scope task set_random_delay $end
$var reg 32 J delay_min [31:0] $end
$var reg 32 K delay_max [31:0] $end
$upscope $end


$scope task set_fixed_delay $end
$var reg 32 L delay [31:0] $end
$upscope $end


$scope task set_slverr $end
$var reg 32 M addr [31:0] $end
$upscope $end

$upscope $end

$upscope $end


$scope module transaction_pkg $end
$upscope $end

$enddefinitions $end
$dumpvars
0!
x"
x#
x$
x%
x&
x'
bx (
bx )
bx *
x+
x,
x-
x.
bx /
bx 0
x1
x2
x3
x4
bx 5
bx 6
bx 7
x8
x9
b0 :
b1 ;
b10 <
bx =
1>
b0 ?
b101 @
b1 A
1B
b11111111111111111111111111111111 C
bx D
bx E
bx F
bx G
bx H
bx I
bx J
bx K
bx L
bx M
$end
#5
1!
0+
0,
0-
0.
b0 /
b0 0
#7
b0 )
b0 (
0$
0%
0#
0"
b0 =
b0 *
1&
#10
0!
b0 H
b0 D
b0 E
b11001010111111100001001000110100 F
b11111010110011100101011001111000 G
0'
18
b0 7
b0 6
b0 5
04
03
02
01
#15
1!
#20
0!
09
#25
1!
1+
#27
1"
#30
0!
11
#35
1!
1,
b11111111111111111111111111111111 /
b0 0
#37
b11111111111111111111111111111111 (
1#
#40
0!
0&
1'
b10 =
b11111111111111111111111111111111 5
12
#45
1!
1-
#47
1%
#50
0!
1&
19
08
13
#55
1!
#60
0!
bx *
b0 =
0,
0-
18
#65
1!
#67
0#
0%
#70
0!
bx 7
03
02
#75
1!
1,
1.
b1001111 /
b10000111 0
#77
b10000111 )
b1001111 (
1$
1#
#80
0!
b11 A
0&
0'
b1 =
b10000111 6
b1001111 5
14
12
#85
1!
1-
#87
1%
#90
0!
09
08
13
#95
1!
#100
0!
#105
1!
#110
0!
1&
#115
1!
#120
0!
b0 =
0,
0-
18
#125
1!
#127
0#
0%
#130
0!
03
02
#135
1!
1,
b11111111111111111111111111111111 /
b1011111 0
#137
b1011111 )
b11111111111111111111111111111111 (
1#
#140
0!
b1 A
0&
1'
b1 =
b1011111 6
b11111111111111111111111111111111 5
12
#145
1!
1-
#147
1%
#150
0!
1&
19
08
13
#155
1!
#160
0!
b0 =
0,
0-
18
#165
1!
#167
0#
0%
#170
0!
03
02
#175
1!
1,
b1000011 /
b1101001 0
#177
b1101001 )
b1000011 (
1#
#180
0!
b10 A
0&
0'
b1 =
b1101001 6
b1000011 5
12
#185
1!
1-
#187
1%
#190
0!
09
08
13
#195
1!
#200
0!
1&
#205
1!
#210
0!
b0 =
0,
0-
18
#215
1!
#217
0#
0%
#220
0!
03
02
#225
1!
1,
b1100000 /
b11100001 0
#227
b11100001 )
b1100000 (
1#
#230
0!
b100 A
0&
b1 =
b11100001 6
b1100000 5
12
#235
1!
1-
#237
1%
#240
0!
08
13
#245
1!
#250
0!
#255
1!
#260
0!
#265
1!
#270
0!
1&
#275
1!
#280
0!
b0 =
0,
0-
18
#285
1!
#287
0#
0%
#290
0!
03
02
#295
1!
1,
b11111111111111111111111111111111 /
b10001010 0
#297
b10001010 )
b11111111111111111111111111111111 (
1#
#300
0!
b0 A
1'
b1 =
b10001010 6
b11111111111111111111111111111111 5
12
#305
1!
1-
#307
1%
#310
0!
b10 A
0&
b0 =
19
13
#315
1!
#320
0!
08
#325
1!
#330
0!
1&
#335
1!
#340
0!
0,
0-
18
#345
1!
#347
0#
0%
#350
0!
03
02
#355
1!
1,
0.
b11111111111111111111111111111111 /
b0 0
#357
b0 )
0$
1#
#360
0!
b11 A
0&
b10 =
b0 6
04
12
#365
1!
1-
#367
1%
#370
0!
08
13
#375
1!
#380
0!
#385
1!
#390
0!
1&
b0 =
#395
1!
#400
0!
0,
0-
18
#405
1!
#407
0#
0%
#410
0!
03
02
#415
1!
1,
b11111111111111111111111111111111 /
b0 0
#417
1#
#420
0!
b0 A
b10 =
12
#425
1!
1-
#427
1%
#430
0!
b101 A
0&
b0 =
13
#435
1!
#440
0!
08
#445
1!
#450
0!
#455
1!
#460
0!
#465
1!
#470
0!
#475
1!
#480
0!
1&
#485
1!
#490
0!
0,
0-
18
#495
1!
#497
0#
0%
#500
0!
03
02
#505
1!
1,
1.
b11111111111111111111111111111111 /
b10010001 0
#507
b10010001 )
1$
1#
#510
0!
0&
b1 =
b10010001 6
14
12
#515
1!
1-
#517
1%
#520
0!
08
13
#525
1!
#530
0!
#535
1!
#540
0!
#545
1!
#550
0!
#555
1!
#560
0!
1&
#565
1!
#570
0!
b0 =
0,
0-
18
#575
1!
#577
0#
0%
#580
0!
03
02
#585
1!
1,
b11111111111111111111111111111111 /
b1111101 0
#587
b1111101 )
1#
#590
0!
0&
b1 =
b1111101 6
12
#595
1!
1-
#597
1%
#600
0!
08
13
#605
1!
#610
0!
#615
1!
#620
0!
#625
1!
#630
0!
#635
1!
#640
0!
1&
#645
1!
#650
0!
b0 =
0,
0-
18
#655
1!
#657
0#
0%
#660
0!
03
02
#665
1!
1,
b1001 /
b11001110 0
#667
b11001110 )
b1001 (
1#
#670
0!
b11 A
0&
0'
b1 =
b11001110 6
b1001 5
12
#675
1!
1-
#677
1%
#680
0!
09
08
13
#685
1!
#690
0!
#695
1!
#700
0!
1&
#705
1!
#710
0!
b0 =
0,
0-
18
#715
1!
#717
0#
0%
#720
0!
03
02
#725
1!
1,
0.
b11111111111111111111111111111111 /
b0 0
#727
b0 )
b11111111111111111111111111111111 (
0$
1#
#730
0!
b0 A
1'
b10 =
b0 6
b11111111111111111111111111111111 5
04
12
#735
1!
1-
#737
1%
#740
0!
b1 A
0&
b0 =
19
13
#745
1!
#750
0!
1&
08
#755
1!
#760
0!
0,
0-
18
#765
1!
#767
0#
0%
#770
0!
03
02
#775
1!
1,
1.
b11111111111111111111111111111111 /
b10000011 0
#777
b10000011 )
1$
1#
#780
0!
b10 A
0&
b1 =
b10000011 6
14
12
#785
1!
1-
#787
1%
#790
0!
08
13
#795
1!
#800
0!
1&
#805
1!
#810
0!
b0 =
0,
0-
18
#815
1!
#817
0#
0%
#820
0!
03
02
#825
1!
1,
0.
b11111111111111111111111111111111 /
b0 0
#827
b0 )
0$
1#
#830
0!
0&
b10 =
b0 6
04
12
#835
1!
1-
#837
1%
#840
0!
08
13
#845
1!
#850
0!
1&
b0 =
#855
1!
#860
0!
0,
0-
18
#865
1!
#867
0#
0%
#870
0!
03
02
#875
1!
1,
b11111111111111111111111111111111 /
b0 0
#877
1#
#880
0!
b0 A
b10 =
12
#885
1!
1-
#887
1%
#890
0!
b101 A
0&
b0 =
13
#895
1!
#900
0!
08
#905
1!
#910
0!
#915
1!
#920
0!
#925
1!
#930
0!
#935
1!
#940
0!
1&
#945
1!
#950
0!
0,
0-
18
#955
1!
#957
0#
0%
#960
0!
03
02
#965
1!
1,
b11111111111111111111111111111111 /
b0 0
#967
1#
#970
0!
b11 A
0&
b10 =
12
#975
1!
1-
#977
1%
#980
0!
08
13
#985
1!
#990
0!
#995
1!
#1000
0!
1&
b0 =
#1005
1!
#1010
0!
0,
0-
18
#1015
1!
#1017
0#
0%
#1020
0!
03
02
#1025
1!
1,
b11111111111111111111111111111111 /
b0 0
#1027
1#
#1030
0!
b10 A
0&
b10 =
12
#1035
1!
1-
#1037
1%
#1040
0!
08
13
#1045
1!
#1050
0!
1&
b0 =
#1055
1!
#1060
0!
0,
0-
18
#1065
1!
#1067
0#
0%
#1070
0!
03
02
#1075
1!
1,
b1010010 /
b0 0
#1077
b1010010 (
1#
#1080
0!
b11 A
0&
0'
b10 =
b1010010 5
12
#1085
1!
1-
#1087
1%
#1090
0!
09
08
13
#1095
1!
#1100
0!
#1105
1!
#1110
0!
1&
b1010010 *
b0 =
#1115
1!
#1120
0!
0,
0-
18
b1010010 7
#1125
1!
#1127
0#
0%
#1130
0!
03
02
#1135
1!
1,
b1011111 /
b0 0
#1137
b1011111 (
1#
#1140
0!
b100 A
0&
b10 =
b1011111 5
12
#1145
1!
1-
#1147
1%
#1150
0!
08
13
#1155
1!
#1160
0!
#1165
1!
#1170
0!
#1175
1!
#1180
0!
1&
b1011111 *
b0 =
#1185
1!
#1190
0!
0,
0-
18
b1011111 7
#1195
1!
#1197
0#
0%
#1200
0!
03
02
#1205
1!
1,
1.
b11111111111111111111111111111111 /
b1010001 0
#1207
b1010001 )
b11111111111111111111111111111111 (
1$
1#
#1210
0!
b101 A
0&
1'
b1 =
b1010001 6
b11111111111111111111111111111111 5
14
12
#1215
1!
1-
#1217
1%
#1220
0!
19
08
13
#1225
1!
#1230
0!
#1235
1!
#1240
0!
#1245
1!
#1250
0!
#1255
1!
#1260
0!
1&
